[
	{
		"initial_date": "01/10/2019",
		"final_date": "03/10/2019",
		"time": 65,
		"member_code": 1
	},
	{
		"inicial_date": "05/09/2019",
		"end_date": "05/10/2019",
		"time": 480,
		"member_code": 2
	},
	{
		"initial_date": "01/11/2019",
		"final_date": "03/11/2019",
		"time": 650,
		"member_code": 10
	}
]